works-done/Guia9/Exemplo_0908.vcd
$date
	Fri Oct 05 12:16:48 2018
$end
$version
	Icarus Verilog
$end
$timescale
	1s
$end
$scope module Exemplo_0908 $end
$var wire 1 ! clock1 $end
$upscope $end
$scope module Exemplo_0908 $end
$var wire 1 " pulse1 $end
$upscope $end
$enddefinitions $end
#0
$dumpvars
x"
0!
$end
#12
1"
1!
#14
0"
#16
1"
#18
0"
#20
1"
#22
0"
#24
1"
0!
#26
0"
#28
1"
#30
0"
#32
1"
#34
0"
#36
1"
1!
#38
0"
#40
1"
#42
0"
#44
1"
#46
0"
#48
1"
0!
#50
0"
#52
1"
#54
0"
#56
1"
#58
0"
#60
1"
1!
#62
0"
#64
1"
#66
0"
#68
1"
#70
0"
#72
1"
0!
#74
0"
#76
1"
#78
0"
#80
1"
#82
0"
#84
1"
1!
#86
0"
#88
1"
#90
0"
#92
1"
#94
0"
#96
1"
0!
#98
0"
#100
1"
#102
0"
#104
1"
#106
0"
#108
1"
1!
#110
0"
#112
1"
#114
0"
#116
1"
#118
0"
#120
1"
0!
#122
0"
#124
1"
#126
0"
#128
1"
#130
0"
#132
1"
1!
#134
0"
#136
1"
#138
0"
#140
1"
#142
0"
#144
1"
0!
#146
0"
#148
1"
#150
0"
#152
1"
#154
0"
#156
1"
1!
#158
0"
#160
1"
#162
0"
#164
1"
#166
0"
#168
1"
0!
#170
0"
#172
1"
#174
0"
#176
1"
#178
0"
#180
1"
1!
#182
0"
#184
1"
#186
0"
#188
1"
#190
0"
#192
1"
0!
#194
0"
#196
1"
#198
0"
#200
1"
#202
0"
#204
1"
1!
#206
0"
#208
1"
#210
0"
#212
1"
#214
0"
#216
1"
0!
#218
0"
#220
1"
#222
0"
#224
1"
#226
0"
#228
1"
1!
#230
0"
#232
1"
#234
0"
#236
1"
#238
0"
#240
1"
0!
#242
0"
#244
1"
#246
0"
#248
1"
#250
0"
#252
1"
1!
#254
0"
#256
1"
#258
0"
#260
1"
#262
0"
#264
1"
0!
#266
0"
#268
1"
#270
0"
#272
1"
#274
0"
#276
1"
1!
#278
0"
#280
1"
#282
0"
#284
1"
#286
0"
#288
1"
0!
#290
0"
#292
1"
#294
0"
#296
1"
#298
0"
#300
1"
1!
#302
0"
#304
1"
#306
0"
#308
1"
#310
0"
#312
1"
0!
#314
0"
#316
1"
#318
0"
#320
1"
#322
0"
#324
1"
1!
#326
0"
#328
1"
#330
0"
#332
1"
#334
0"
#336
1"
0!
#338
0"
#340
1"
#342
0"
#344
1"
#346
0"
#348
1"
1!
#350
0"
#352
1"
#354
0"
#356
1"
#358
0"
#360
1"
0!
#362
0"
#364
1"
#366
0"
#368
1"
#370
0"
#372
1"
1!
#374
0"
#376
1"
#378
0"
#380
1"
#382
0"
#384
1"
0!
#386
0"
#388
1"
#390
0"
#392
1"
#394
0"
#396
1"
1!
#398
0"
#400
1"
#402
0"
#404
1"
#406
0"
#408
1"
0!
#410
0"
#412
1"
#414
0"
#416
1"
#418
0"
#420
1"
1!
#422
0"
#424
1"
#426
0"
#428
1"
#430
0"
#432
1"
0!
#434
0"
#436
1"
#438
0"
#440
1"
#442
0"
#444
1"
1!
#446
0"
#448
1"
#450
0"
#452
1"
#454
0"
#456
1"
0!
#458
0"
#460
1"
#462
0"
#464
1"
#466
0"
#468
1"
1!
#470
0"
#472
1"
#474
0"
#476
1"
#478
0"
#480
1"
0!
